int a;

void a()
{
        a=4--3;
        a=1*2/3+4-5>>6<<7>8<9==10!=11;
        a=1!=2==3<4>5>>6<<7-8+9/10*11;
        a=1!=-2==3<-4>5>>-6<<7--8+9/-10*11;
}

----------------------------------------------

int a;

void fun_a()
{
        int a=(0!=-1!=-2!=-3)!=2==3<4>5>>6<<7-8+9/10*11;
        int c[300];
        __int64 dd[500], ddvar = 123456789, asdasdas=-123<<2;
        int b[20], e[11], fgh = 5;
}

__int64 fgh;

----------------------------------------------
int arr[200];
__int64 another[123];
int a = another[7/arr[20+arr[100]*2<<8]-3*another[9999]];
----------------------------------------------
int arr[200];
__int64 another[123];
int b = arr[1];

void main()
{
int a[1];
a[a[a[12]]] = another[arr[20+arr[100]*2<<8]/b-3*another[9999]];
}
----------------------------------------------
void main()
{
int a;
    for (a = 1; a < 2; a = a + 1) {
        for (a = 1; a < 2; a = a + 1) {
            a = 1 + 1;
        }
    }
}

----------------------------------------------
void main()
{
int trash;
int a;
int i;
for (i = 1*1; i < 2*2; i = 3*3) {
    i = a*1;
    for (trash = 0; trash < 1; trash = trash*1*2*3) {
        a = 2*1*i*1*2;
    }
}
}

----------------------------------------------
void main()
{
int trash;
int a=2;
int i;
for (i = 1; i < 2*2; i = 3*2) {
    i = a*a*2*a;
}
}

---------------------------------------------

void main()
{
int arr[20];
int trash;
int a;
int i;
for (i = 1*1; i < 2+2; i = 3*3) {
    i = arr[1]*1;
    for (trash = 0; trash < 1; trash = trash*1*2*3) {
        a = 2*1*i*1*2;
        arr[trash] = 1;
    }
}
}
-----------------
int a = 1+1+(1+1+(1+1+(1+1+(1+1+(1+1+(1+1+(1+1)))))));
int b = 1*1*(1*1*(1*1*(1*1*(1*1*(1*1*(1*1*(1*1)))))));
int b = (1+2)*(3+4)+5*6*(9+7*8)+10*11;
---------------------------------------------
int g1;
int g2;
int g3;
int g4;
void main()
{
int loc1, loc2, loc3;
int a = g3*g3+2*loc1+4*g1+loc2+g2*10*11+loc3*g4*5;
}
