1) PROC main 
2) * g3 g3
3) * 2 loc1
4) + (2) (3)
5) * 4 g1
6) + (4) (5)
7) + (6) loc2
8) * g2 10
9) * (8) 11
10) + (7) (9)
11) * loc3 g4
12) * (11) 5
13) + (10) (12)
14) = a (13)
15) RET  
16) ENDP  
